{
  "connect_to_cloud": "false",
  "web_port": "6100",
  "db_host": "localhost",
  "db_database": "simserver",
  "db_user": "root",
  "db_passwd": "123456",
  "account": "admin",
  "password": "DB69FC039DCBD2962CB4D28F5891AAE1",
  "serverPath": "/opt/dinstar/record",
  "appServerPath": "./app_server.js",
  "webLogFile": "./webLogs/webServer.log",
  "pidFilePath": "/var/run/record.pid",
  "cloudServerHost": "server02.dmcld.com",
  "cloudServerPort": "80",
  "cloudServerPath": "/webapi.action?action=UpdateStatusInfo",

  "tape_count_limit": 300,
  "cpuAlarmRate": "0",
  "serverMemoryAlarmRate": "0",
  "diskUsedAlarmRate": "0",

  "product_id": "61",
  "product_name": "DRSERVER",
  "server_id": "161",
  "status_path": "/opt/dinstar/proc",
  "max_sessions": 400,
  "recording_path": "/opt/recordings",
  "backup_path": "/opt/recordings_backup",
  "server_port": "2999",
  "server_ip": "127.0.0.1",
  "recorder_log_path": "/var/log/drecorder/drecorder.log",
  "recorder_log_level": 4,
  "logger_factory": {
    "type": "winston",
    "settings": {
      "transports": [
        ["winston.transports.Console", {"level":"notice", "colorize":true, "timestamp":true}],
        ["winston.transports.File", {"level":"info", "filename":"/var/log/drecorder/app_server.log", "maxsize":10000000, "maxFiles":10}]
      ]
    }
  }
}

