{
  "login_success": "登录成功！",
  "login_failed_userName": "登录失败！用户名错误！",
  "login_failed_password": "登录失败！用户密码错误！",
  "Missing Parameters!":"缺少传入参数！",
  "Old password incorrect!":"旧密码不正确！",
  "debug":"调试",
  "notice":"提示",
  "warning":"警告",
  "error":"错误",
  "serious":"紧急",
  "unknown":"未知",
  "database":"数据库",
  "cloud":"CLOUD",
  "cpu userate":"CPU使用率",
  "server memory userate":"服务器内存使用率",
  "app memory userate":"程序内存使用率",
  "disk userate":"磁盘使用率",
  "confirmed":"已确认",
  "unconfirmed":"未确认",
  "system service":"系统服务",
  "query_domain_id_error":"查询cloud域id失败，请检查cloud配置后重启重试！",
  "no_domain_id": "cloud查无该服务id所对应域id，请检查cloud配置后重启重试！",

  "require param action!":"缺少操作参数！",
  "Session timeout!Please relogin!":"会话超时，请重新登录！",
  "Unkown error!":"未知错误！"
}